…
medicare_data <- read_csv(here::here("dataset", "Medicare_Data.csv") , 
col_types = cols( Avg_Mdcr_Pymt_Amt=col_number(), Avg_Tot_Pymt_Amt=col_number(), Avg_Submtd_Cvrd_Chrg=col_number()))
medicare_data_clean <- medicare_data %>% 
filter(!grepl('Unknown', medicare_data$Rndrng_Prvdr_RUCA_Desc)) %>%
   drop_na() %>%      
select(-Rndrng_Prvdr_CCN, -Rndrng_Prvdr_St, -Rndrng_Prvdr_State_FIPS, -Rndrng_Prvdr_Zip5, -Rndrng_Prvdr_RUCA_Desc)
(medicare_data_sum <- medicare_data_clean %>%
  group_by(Rndrng_Prvdr_State_Abrvtn) %>%
  summarize(Mean_Discharge = mean(Tot_Dschrgs), Mean_Covered = mean(Avg_Submtd_Cvrd_Chrg), Mean_Total_Payment = mean(Avg_Tot_Pymt_Amt), Mean_Medicare_Payment = mean(Avg_Mdcr_Pymt_Amt)))

## # A tibble: 51 × 5
##    Rndrng_Prvdr_State_Abrvtn Mean_Discharge Mean_Covered Mean_Total_Pa…¹ Mean_…²
##    <chr>                              <dbl>        <dbl>           <dbl>   <dbl>
##  1 AK                                  28.9      114661.          24284.  20744.
##  2 AL                                  33.5       66193.          13156.  10637.
##  3 AR                                  34.8       51085.          12931.  11166.
##  4 AZ                                  31.9       89736.          16744.  14281.
##  5 CA                                  33.7      128218.          21425.  18811.
##  6 CO                                  29.8      109313.          17936.  15281.
##  7 CT                                  37.3       60092.          18871.  15676.
##  8 DC                                  35.3      110420.          25532.  19320.
##  9 DE                                  45.8       49655.          16025.  13095.
## 10 FL                                  36.9       92665.          13998.  11935.
## # … with 41 more rows, and abbreviated variable names ¹​Mean_Total_Payment,
## #   ²​Mean_Medicare_Payment
…
