…
## ── Conflicts ────────────────────────────────────────── tidyverse_conflicts() ──
## ✖ dplyr::filter() masks stats::filter()
## ✖ dplyr::lag()    masks stats::lag()

medicare_data <- read_csv(here::here("dataset", "Medicare_Data.csv") , 
col_types = cols( Avg_Mdcr_Pymt_Amt=col_number(), Avg_Tot_Pymt_Amt=col_number(), Avg_Submtd_Cvrd_Chrg=col_number()))
medicare_data_clean <- medicare_data %>% 
filter(!grepl('Unknown', medicare_data$Rndrng_Prvdr_RUCA_Desc)) %>%
   drop_na() %>%      
select(-Rndrng_Prvdr_CCN, -Rndrng_Prvdr_St, -Rndrng_Prvdr_State_FIPS, -Rndrng_Prvdr_Zip5, -Rndrng_Prvdr_RUCA_Desc)
(medicare_data_sum <- medicare_data_clean %>%
  group_by(Rndrng_Prvdr_State_Abrvtn) %>%
  summarize(Mean_Discharge = mean(Tot_Dschrgs), Mean_Covered = mean(Avg_Submtd_Cvrd_Chrg), Mean_Total_Payment = mean(Avg_Tot_Pymt_Amt), Mean_Medicare_Payment = mean(Avg_Mdcr_Pymt_Amt)))

## # A tibble: 51 × 5
##    Rndrng_Prvdr_State_Abrvtn Mean_Discharge Mean_Covered Mean_Total_Pa…¹ Mean_…²
##    <chr>                              <dbl>        <dbl>           <dbl>   <dbl>
##  1 AK                                  28.9      114661.          24284.  20744.
##  2 AL                                  33.5       66193.          13156.  10637.
##  3 AR                                  34.8       51085.          12931.  11166.
##  4 AZ                                  31.9       89736.          16744.  14281.
##  5 CA                                  33.7      128218.          21425.  18811.
##  6 CO                                  29.8      109313.          17936.  15281.
##  7 CT                                  37.3       60092.          18871.  15676.
##  8 DC                                  35.3      110420.          25532.  19320.
##  9 DE                                  45.8       49655.          16025.  13095.
## 10 FL                                  36.9       92665.          13998.  11935.
## # … with 41 more rows, and abbreviated variable names ¹​Mean_Total_Payment,
## #   ²​Mean_Medicare_Payment
…
library(tidyverse)
medicare_data19 <- read_csv(here::here("dataset", "medicare-19.csv") , 
col_types = cols( Avg_Mdcr_Pymt_Amt=col_number(), Avg_Tot_Pymt_Amt=col_number(), Avg_Submtd_Cvrd_Chrg=col_number()))
medicare_data_clean19 <- medicare_data19 %>% 
filter(!grepl('Unknown', medicare_data19$Rndrng_Prvdr_RUCA_Desc)) %>%
   drop_na() %>%      
select(-Rndrng_Prvdr_CCN, -Rndrng_Prvdr_St, -Rndrng_Prvdr_State_FIPS, -Rndrng_Prvdr_Zip5, -Rndrng_Prvdr_RUCA_Desc)
(medicare_data_sum19 <- medicare_data_clean19 %>%
  group_by(Rndrng_Prvdr_State_Abrvtn) %>%
  summarize(Mean_Discharge = mean(Tot_Dschrgs), Mean_Covered = mean(Avg_Submtd_Cvrd_Chrg), Mean_Total_Payment = mean(Avg_Tot_Pymt_Amt), Mean_Medicare_Payment = mean(Avg_Mdcr_Pymt_Amt)))

## # A tibble: 51 × 5
##    Rndrng_Prvdr_State_Abrvtn Mean_Discharge Mean_Covered Mean_Total_Pa…¹ Mean_…²
##    <chr>                              <dbl>        <dbl>           <dbl>   <dbl>
##  1 AK                                  29.9      100425.          21985.  19093.
##  2 AL                                  35.4       60765.          11874.   9501.
##  3 AR                                  36.7       47619.          11840.  10203.
##  4 AZ                                  33.8       82678.          15638.  13475.
##  5 CA                                  34.8      116890.          19631.  17179.
##  6 CO                                  32.7       97609.          16410.  13801.
##  7 CT                                  39.9       53830.          17210.  14262.
##  8 DC                                  36.5       99362.          23548.  17423.
##  9 DE                                  48.1       46057.          15271.  12542.
## 10 FL                                  38.5       86523.          12975.  11035.
## # … with 41 more rows, and abbreviated variable names ¹​Mean_Total_Payment,
## #   ²​Mean_Medicare_Payment
year19 = c(2019)
medicare_data_clean19$year <- year19
medicare_data_sum19$year<-year19

medicare_data18 <- read_csv(here::here("dataset", "medicare-18.csv") , 
col_types = cols( Avg_Mdcr_Pymt_Amt=col_number(), Avg_Tot_Pymt_Amt=col_number(), Avg_Submtd_Cvrd_Chrg=col_number()))
medicare_data_clean18 <- medicare_data18 %>% 
filter(!grepl('Unknown', medicare_data18$Rndrng_Prvdr_RUCA_Desc)) %>%
   drop_na() %>%      
select(-Rndrng_Prvdr_CCN, -Rndrng_Prvdr_St, -Rndrng_Prvdr_State_FIPS, -Rndrng_Prvdr_Zip5, -Rndrng_Prvdr_RUCA_Desc)
(medicare_data_sum18 <- medicare_data_clean18 %>%
  group_by(Rndrng_Prvdr_State_Abrvtn) %>%
  summarize(Mean_Discharge = mean(Tot_Dschrgs), Mean_Covered = mean(Avg_Submtd_Cvrd_Chrg), Mean_Total_Payment = mean(Avg_Tot_Pymt_Amt), Mean_Medicare_Payment = mean(Avg_Mdcr_Pymt_Amt)))

## # A tibble: 51 × 5
##    Rndrng_Prvdr_State_Abrvtn Mean_Discharge Mean_Covered Mean_Total_Pa…¹ Mean_…²
##    <chr>                              <dbl>        <dbl>           <dbl>   <dbl>
##  1 AK                                  30.3       91156.          22137.  19278.
##  2 AL                                  35.6       58251.          11096.   9119.
##  3 AR                                  37.4       44839.          11467.   9835.
##  4 AZ                                  34.2       77035.          15234.  13121.
##  5 CA                                  35.3      110743.          18816.  16468.
##  6 CO                                  33.3       90807.          15980.  13343.
##  7 CT                                  41.2       50935.          16194.  13545.
##  8 DC                                  35.7       90327.          22342.  16738.
##  9 DE                                  49.5       44886.          15475.  12771.
## 10 FL                                  39.1       80717.          12273.  10448.
## # … with 41 more rows, and abbreviated variable names ¹​Mean_Total_Payment,
## #   ²​Mean_Medicare_Payment
year18 = c(2018)
medicare_data_clean18$year <- year18
medicare_data_sum18$year<-year18

medicare_data17 <- read_csv(here::here("dataset", "medicare-17.csv") , 
col_types = cols( Avg_Mdcr_Pymt_Amt=col_number(), Avg_Tot_Pymt_Amt=col_number(), Avg_Submtd_Cvrd_Chrg=col_number()))
medicare_data_clean17 <- medicare_data17 %>% 
filter(!grepl('Unknown', medicare_data17$Rndrng_Prvdr_RUCA_Desc)) %>%
   drop_na() %>%      
select(-Rndrng_Prvdr_CCN, -Rndrng_Prvdr_St, -Rndrng_Prvdr_State_FIPS, -Rndrng_Prvdr_Zip5, -Rndrng_Prvdr_RUCA_Desc)
(medicare_data_sum17 <- medicare_data_clean17 %>%
  group_by(Rndrng_Prvdr_State_Abrvtn) %>%
  summarize(Mean_Discharge = mean(Tot_Dschrgs), Mean_Covered = mean(Avg_Submtd_Cvrd_Chrg), Mean_Total_Payment = mean(Avg_Tot_Pymt_Amt), Mean_Medicare_Payment = mean(Avg_Mdcr_Pymt_Amt)))

## # A tibble: 51 × 5
##    Rndrng_Prvdr_State_Abrvtn Mean_Discharge Mean_Covered Mean_Total_Pa…¹ Mean_…²
##    <chr>                              <dbl>        <dbl>           <dbl>   <dbl>
##  1 AK                                  28.8       87564.          21367.  18713.
##  2 AL                                  36.4       54861.          10539.   8722.
##  3 AR                                  36.9       42952.          10940.   9373.
##  4 AZ                                  33.8       71446.          14886.  12908.
##  5 CA                                  34.9      106458.          18458.  16242.
##  6 CO                                  33.3       81884.          14994.  12585.
##  7 CT                                  41.9       48540.          15651.  13089.
##  8 DC                                  37.0       82164.          21094.  16125.
##  9 DE                                  52.1       43503.          15282.  12393.
## 10 FL                                  39.1       76318.          11833.  10064.
## # … with 41 more rows, and abbreviated variable names ¹​Mean_Total_Payment,
## #   ²​Mean_Medicare_Payment
year17 = c(2017)
medicare_data_clean17$year <- year17
medicare_data_sum17$year<-year17

medicare_data16 <- read_csv(here::here("dataset", "medicare-16.csv") , 
col_types = cols( Avg_Mdcr_Pymt_Amt=col_number(), Avg_Tot_Pymt_Amt=col_number(), Avg_Submtd_Cvrd_Chrg=col_number()))
medicare_data_clean16 <- medicare_data16 %>% 
filter(!grepl('Unknown', medicare_data16$Rndrng_Prvdr_RUCA_Desc)) %>%
   drop_na() %>%      
select(-Rndrng_Prvdr_CCN, -Rndrng_Prvdr_St, -Rndrng_Prvdr_State_FIPS, -Rndrng_Prvdr_Zip5, -Rndrng_Prvdr_RUCA_Desc)
(medicare_data_sum16 <- medicare_data_clean16 %>%
  group_by(Rndrng_Prvdr_State_Abrvtn) %>%
  summarize(Mean_Discharge = mean(Tot_Dschrgs), Mean_Covered = mean(Avg_Submtd_Cvrd_Chrg), Mean_Total_Payment = mean(Avg_Tot_Pymt_Amt), Mean_Medicare_Payment = mean(Avg_Mdcr_Pymt_Amt)))

## # A tibble: 51 × 5
##    Rndrng_Prvdr_State_Abrvtn Mean_Discharge Mean_Covered Mean_Total_Pa…¹ Mean_…²
##    <chr>                              <dbl>        <dbl>           <dbl>   <dbl>
##  1 AK                                  28.0       85381.          20599.  18332.
##  2 AL                                  37.0       51853.          10287.   8628.
##  3 AR                                  37.2       41506.          10959.   9402.
##  4 AZ                                  33.0       68958.          14542.  12690.
##  5 CA                                  33.8      102123.          18152.  15995.
##  6 CO                                  31.6       75457.          14257.  12127.
##  7 CT                                  40.6       46668.          15214.  12916.
##  8 DC                                  35.7       76397.          20529.  15916.
##  9 DE                                  52.2       40808.          14920.  12258.
## 10 FL                                  38.9       71860.          11663.   9986.
## # … with 41 more rows, and abbreviated variable names ¹​Mean_Total_Payment,
## #   ²​Mean_Medicare_Payment
year16 = c(2016)
medicare_data_clean16$year <- year16
medicare_data_sum16$year<-year16

medicare_data15 <- read_csv(here::here("dataset", "medicare-15.csv") , 
col_types = cols( Avg_Mdcr_Pymt_Amt=col_number(), Avg_Tot_Pymt_Amt=col_number(), Avg_Submtd_Cvrd_Chrg=col_number()))
medicare_data_clean15 <- medicare_data15 %>% 
filter(!grepl('Unknown', medicare_data15$Rndrng_Prvdr_RUCA_Desc)) %>%
   drop_na() %>%      
select(-Rndrng_Prvdr_CCN, -Rndrng_Prvdr_St, -Rndrng_Prvdr_State_FIPS, -Rndrng_Prvdr_Zip5, -Rndrng_Prvdr_RUCA_Desc)
(medicare_data_sum15 <- medicare_data_clean15 %>%
  group_by(Rndrng_Prvdr_State_Abrvtn) %>%
  summarize(Mean_Discharge = mean(Tot_Dschrgs), Mean_Covered = mean(Avg_Submtd_Cvrd_Chrg), Mean_Total_Payment = mean(Avg_Tot_Pymt_Amt), Mean_Medicare_Payment = mean(Avg_Mdcr_Pymt_Amt)))

## # A tibble: 51 × 5
##    Rndrng_Prvdr_State_Abrvtn Mean_Discharge Mean_Covered Mean_Total_Pa…¹ Mean_…²
##    <chr>                              <dbl>        <dbl>           <dbl>   <dbl>
##  1 AK                                  26.7       74818.          19126.  17024.
##  2 AL                                  36.7       49872.          10027.   8542.
##  3 AR                                  36.2       38925.          10436.   8941.
##  4 AZ                                  32.4       62036.          13674.  11732.
##  5 CA                                  33.3       97663.          17192.  15205.
##  6 CO                                  30.9       67299.          13314.  11222.
##  7 CT                                  40.5       46288.          14935.  12539.
##  8 DC                                  36.4       69066.          19138.  14791.
##  9 DE                                  51.5       38310.          13870.  11438.
## 10 FL                                  39.6       67965.          11430.   9761.
## # … with 41 more rows, and abbreviated variable names ¹​Mean_Total_Payment,
## #   ²​Mean_Medicare_Payment
year15 = c(2015)
medicare_data_clean15$year <- year15
medicare_data_sum15$year<-year15

medicare_data14 <- read_csv(here::here("dataset", "medicare-14.csv") , 
col_types = cols( Avg_Mdcr_Pymt_Amt=col_number(), Avg_Tot_Pymt_Amt=col_number(), Avg_Submtd_Cvrd_Chrg=col_number()))
medicare_data_clean14 <- medicare_data14 %>% 
filter(!grepl('Unknown', medicare_data14$Rndrng_Prvdr_RUCA_Desc)) %>%
   drop_na() %>%      
select(-Rndrng_Prvdr_CCN, -Rndrng_Prvdr_St, -Rndrng_Prvdr_State_FIPS, -Rndrng_Prvdr_Zip5, -Rndrng_Prvdr_RUCA_Desc)
(medicare_data_sum14 <- medicare_data_clean14 %>%
  group_by(Rndrng_Prvdr_State_Abrvtn) %>%
  summarize(Mean_Discharge = mean(Tot_Dschrgs), Mean_Covered = mean(Avg_Submtd_Cvrd_Chrg), Mean_Total_Payment = mean(Avg_Tot_Pymt_Amt), Mean_Medicare_Payment = mean(Avg_Mdcr_Pymt_Amt)))

## # A tibble: 51 × 5
##    Rndrng_Prvdr_State_Abrvtn Mean_Discharge Mean_Covered Mean_Total_Pa…¹ Mean_…²
##    <chr>                              <dbl>        <dbl>           <dbl>   <dbl>
##  1 AK                                  26.0       79379.          21537.  19087.
##  2 AL                                  35.9       47513.          10114.   8656.
##  3 AR                                  35.4       37150.          10333.   8897.
##  4 AZ                                  31.8       58044.          13627.  11726.
##  5 CA                                  32.5       94478.          17089.  15253.
##  6 CO                                  29.8       66031.          13537.  11469.
##  7 CT                                  39.7       45466.          15170.  13092.
##  8 DC                                  36.3       65626.          18965.  15181.
##  9 DE                                  49.9       36696.          14147.  11878.
## 10 FL                                  38.9       64099.          11425.   9743.
## # … with 41 more rows, and abbreviated variable names ¹​Mean_Total_Payment,
## #   ²​Mean_Medicare_Payment
…
